Speaker:DAVE, Body:"No!!!", Label: Start
Body:"No no no!!"
Body:"This is the worst thing that could possibly happen!"
Body:"Taco Don's is CLOSED!"
Body:"Who closes up at 4 in the afternoon??"
Body:"That's like,"
Body:"Prime time for tacos!!", "Choice: What are we gonna do?,Answer1,Well there's only one thing to do.,Answer2"

Speaker:DAVE, Body:"Dude, there's only one thing TO do.", Label: Answer1
Body:"We gotta bust into Taco Don's."
Body:"We gotta do some CRIMES."
Body:"But just the necessary ones, not like."
Body:"Bad CRIMES.", Next: Reconvene1

Body:"We gotta bust into Taco Don's", Label: Answer2
Speaker:DAVE, Body:"My my my! Luc!"
Body:"I never thought you'd be a CRIME guy"
Body:"My respect for you grows by the day!"

Speaker:DAVE, Body:"So how are we gonna get into Dirty Don's?", Label: Reconvene1, "Choice: Maybe there's like... some rats around?, Answer3, Do you have any ideas?, Answer4"

Body:"Rats like to hang out at restaurants.", Label: Answer3
Body:"They probably have some kind of sneaky ways in."
Speaker:DAVE, Body:"That's brilliant my guy!"
Body:"Rats are so cool too."
Body:"Some of my best friends are rats.", END

Speaker:DAVE, Body:"Dude, maybe there's some kinda hole or something", Label: Answer4
Body:"Like, for a bug. Or a rat."
Body:"We could maybe squeeze on in there?"
Speaker:YOU, Body:"Or maybe I could possess a hole sized creature?"
Speaker:DAVE, Body:"Oh yeah, that would probably work.", END