Speaker:YOU, Body:"Hey, do you know what band this is?", Label:Start
Speaker:GUY, Body:"Yeah, this is SKUL", "Choice:SKUL?,Answer1,Like with one L?,Answer2"

Speaker:GUY, Body:"Yknow, with a L", Label: Answer1

Speaker:GUY, Body:"They’re from F-burg I think", Label: Answer2

Speaker:GUY, Body:"SKUL ROCKS dude", "Choice:Aren’t you gonna check em out?,Answer3,SKUL kinda does rule,Answer4"

Speaker:GUY, Body:"Maybe after this cig.", Label: Answer3, END

Speaker:GUY, Body:"Yeah! SKUL!", Label: Answer4, END