Speaker:YOU, Body:"Drinks on gals and pals!", Label: Start
Speaker:KAT, Body:"Woah. That was so cool!"
Speaker:YOU, Body:"Haha, I guess so."
Speaker:MIKA, Body:"Hey guys, I gotta get to work. Kat, can I bum a ride?"
Speaker:KAT, Body:"Oh for sure."
Speaker:KAT, Body:"Hey guys, I hate to be a bummer, but we gotta kick you out."
Speaker:KAT, Body:"Landlord doesn’t like strangers in the house when we aren’t here."
Speaker:KAT, Body:"But maybe we’ll see you tonight in Port Smithers?", END